<?xml version="1.0" encoding="iso-8859-1"?>
<!-- Generator: Adobe Illustrator 17.0.0, SVG Export Plug-In . SVG Version: 6.00 Build 0)  -->
<!DOCTYPE svg PUBLIC "-//W3C//DTD SVG 1.1//EN" "http://www.w3.org/Graphics/SVG/1.1/DTD/svg11.dtd">
<svg version="1.1" id="Layer_1" xmlns="http://www.w3.org/2000/svg" xmlns:xlink="http://www.w3.org/1999/xlink" x="0px" y="0px"
	 width="202.372px" height="202.372px" viewBox="0 0 202.372 202.372" style="enable-background:new 0 0 202.372 202.372;"
	 xml:space="preserve">
<g>
	<path style="fill:none;stroke:#231F20;stroke-width:2;stroke-miterlimit:10;" d="M172,30.268L101.56,1.082L30.85,30.373
		L1.084,101.068l29.291,70.71l71.275,29.511l70.71-29.291l28.931-71.02L172,30.268z M157.645,157.837l-56.568,23.431l-56.541-23.862
		l-23.431-56.568L44.44,44.535l56.569-23.431l56.83,23.097l23.431,56.569L157.645,157.837z"/>
	<g>
		<polyline style="fill:none;stroke:#231F20;stroke-width:2;stroke-miterlimit:10;" points="44.44,44.535 30.85,30.373 
			37.645,37.454 		"/>
		<line style="fill:none;stroke:#231F20;stroke-width:2;stroke-miterlimit:10;" x1="101.008" y1="21.103" x2="101.56" y2="1.082"/>
		<line style="fill:none;stroke:#231F20;stroke-width:2;stroke-miterlimit:10;" x1="157.839" y1="44.201" x2="172" y2="30.268"/>
		
			<line style="fill:none;stroke:#231F20;stroke-width:2;stroke-miterlimit:10;" x1="181.27" y1="100.769" x2="201.291" y2="100.978"/>
		
			<line style="fill:none;stroke:#231F20;stroke-width:2;stroke-miterlimit:10;" x1="157.645" y1="157.837" x2="172.359" y2="171.999"/>
		
			<line style="fill:none;stroke:#231F20;stroke-width:2;stroke-miterlimit:10;" x1="101.077" y1="181.269" x2="101.649" y2="201.289"/>
		
			<line style="fill:none;stroke:#231F20;stroke-width:2;stroke-miterlimit:10;" x1="44.536" y1="157.406" x2="30.374" y2="171.778"/>
		<line style="fill:none;stroke:#231F20;stroke-width:2;stroke-miterlimit:10;" x1="1.084" y1="101.068" x2="21.104" y2="100.838"/>
		
			<polygon style="fill:none;stroke:#231F20;stroke-width:2;stroke-linecap:round;stroke-linejoin:round;stroke-miterlimit:10;" points="
			11.094,100.769 15.967,65.721 37.645,37.454 32.772,72.686 		"/>
		
			<polygon style="fill:none;stroke:#231F20;stroke-width:2;stroke-linecap:round;stroke-linejoin:round;stroke-miterlimit:10;" points="
			15.967,136.997 11.094,100.769 32.82,129.122 37.134,164.918 		"/>
		
			<polygon style="fill:none;stroke:#231F20;stroke-width:2;stroke-linecap:round;stroke-linejoin:round;stroke-miterlimit:10;" points="
			72.806,169.338 101.077,191.279 66.012,186.534 37.134,164.918 		"/>
		
			<polygon style="fill:none;stroke:#231F20;stroke-width:2;stroke-linecap:round;stroke-linejoin:round;stroke-miterlimit:10;" points="
			66.012,15.808 37.645,37.454 72.724,32.819 101.008,11.093 		"/>
		
			<polygon style="fill:none;stroke:#231F20;stroke-width:2;stroke-linecap:round;stroke-linejoin:round;stroke-miterlimit:10;" points="
			129.361,169.553 165.002,164.918 137.004,186.644 101.077,191.279 		"/>
		
			<polygon style="fill:none;stroke:#231F20;stroke-width:2;stroke-linecap:round;stroke-linejoin:round;stroke-miterlimit:10;" points="
			169.554,129.07 191.28,101.186 186.645,136.93 165.002,164.918 		"/>
		
			<polygon style="fill:none;stroke:#231F20;stroke-width:2;stroke-linecap:round;stroke-linejoin:round;stroke-miterlimit:10;" points="
			164.919,37.454 186.825,66.057 191.28,101.186 172,78.389 		"/>
		
			<polygon style="fill:none;stroke:#231F20;stroke-width:2;stroke-linecap:round;stroke-linejoin:round;stroke-miterlimit:10;" points="
			129.834,32.819 101.008,11.093 136.906,15.728 164.919,37.454 		"/>
	</g>
</g>
</svg>
